{
  "mu": 0.0,
  "G": 0.0,
  "g_exp": -2,
  "g_x": 0.0,
  "g_y": 0.0,  
  "movables": [
    {
      "__type__": "Ball",
      "x": 500.0,
      "y": 400.0,
      "vx": -10.0,
      "vy": 0.0,
      "r": 10.0,
      "m_i": 50000.0,
      "m_h": 0.0,
      "tau": 0.0,
      "substantial": true,
      "fixed": false,
      "color": "#7F503E",
      "label": "",
      "on_decay": null,
      "on_collision": null
    },
    {
      "__type__": "Ball",
      "x": 495.105651629515,
      "y": 430.901699437495,
      "vx": -9.51056516295153,
      "vy": -3.09016994374947,
      "r": 10.0,
      "m_i": 50000.0,
      "m_h": 0.0,
      "tau": 0.0,
      "substantial": true,
      "fixed": false,
      "color": "#7F0118",
      "label": "",
      "on_decay": null,
      "on_collision": null
    },
    {
      "__type__": "Ball",
      "x": 480.901699437495,
      "y": 458.778525229247,
      "vx": -8.09016994374948,
      "vy": -5.87785252292473,
      "r": 10.0,
      "m_i": 50000.0,
      "m_h": 0.0,
      "tau": 0.0,
      "substantial": true,
      "fixed": false,
      "color": "#7F3148",
      "label": "",
      "on_decay": null,
      "on_collision": null
    },
    {
      "__type__": "Ball",
      "x": 458.778525229247,
      "y": 480.901699437495,
      "vx": -5.87785252292473,
      "vy": -8.09016994374948,
      "r": 10.0,
      "m_i": 50000.0,
      "m_h": 0.0,
      "tau": 0.0,
      "substantial": true,
      "fixed": false,
      "color": "#7F475D",
      "label": "",
      "on_decay": null,
      "on_collision": null
    },
    {
      "__type__": "Ball",
      "x": 430.901699437495,
      "y": 495.105651629515,
      "vx": -3.09016994374947,
      "vy": -9.51056516295153,
      "r": 10.0,
      "m_i": 50000.0,
      "m_h": 0.0,
      "tau": 0.0,
      "substantial": true,
      "fixed": false,
      "color": "#7F3B5A",
      "label": "",
      "on_decay": null,
      "on_collision": null
    },
    {
      "__type__": "Ball",
      "x": 400.0,
      "y": 500.0,
      "vx": 0.0,
      "vy": -10.0,
      "r": 10.0,
      "m_i": 50000.0,
      "m_h": 0.0,
      "tau": 0.0,
      "substantial": true,
      "fixed": false,
      "color": "#7E7F74",
      "label": "",
      "on_decay": null,
      "on_collision": null
    },
    {
      "__type__": "Ball",
      "x": 369.098300562505,
      "y": 495.105651629515,
      "vx": 3.09016994374947,
      "vy": -9.51056516295153,
      "r": 10.0,
      "m_i": 50000.0,
      "m_h": 0.0,
      "tau": 0.0,
      "substantial": true,
      "fixed": false,
      "color": "#6C7F39",
      "label": "",
      "on_decay": null,
      "on_collision": null
    },
    {
      "__type__": "Ball",
      "x": 341.221474770753,
      "y": 480.901699437495,
      "vx": 5.87785252292473,
      "vy": -8.09016994374948,
      "r": 10.0,
      "m_i": 50000.0,
      "m_h": 0.0,
      "tau": 0.0,
      "substantial": true,
      "fixed": false,
      "color": "#647F47",
      "label": "",
      "on_decay": null,
      "on_collision": null
    },
    {
      "__type__": "Ball",
      "x": 319.098300562505,
      "y": 458.778525229247,
      "vx": 8.09016994374947,
      "vy": -5.87785252292473,
      "r": 10.0,
      "m_i": 50000.0,
      "m_h": 0.0,
      "tau": 0.0,
      "substantial": true,
      "fixed": false,
      "color": "#387F19",
      "label": "",
      "on_decay": null,
      "on_collision": null
    },
    {
      "__type__": "Ball",
      "x": 304.894348370485,
      "y": 430.901699437495,
      "vx": 9.51056516295153,
      "vy": -3.09016994374947,
      "r": 10.0,
      "m_i": 50000.0,
      "m_h": 0.0,
      "tau": 0.0,
      "substantial": true,
      "fixed": false,
      "color": "#157F0B",
      "label": "",
      "on_decay": null,
      "on_collision": null
    },
    {
      "__type__": "Ball",
      "x": 300.0,
      "y": 400.0,
      "vx": 10.0,
      "vy": 0.0,
      "r": 10.0,
      "m_i": 50000.0,
      "m_h": 0.0,
      "tau": 0.0,
      "substantial": true,
      "fixed": false,
      "color": "#577F53",
      "label": "",
      "on_decay": null,
      "on_collision": null
    },
    {
      "__type__": "Ball",
      "x": 304.894348370485,
      "y": 369.098300562505,
      "vx": 9.51056516295153,
      "vy": 3.09016994374947,
      "r": 10.0,
      "m_i": 50000.0,
      "m_h": 0.0,
      "tau": 0.0,
      "substantial": true,
      "fixed": false,
      "color": "#1C7F05",
      "label": "",
      "on_decay": null,
      "on_collision": null
    },
    {
      "__type__": "Ball",
      "x": 319.098300562505,
      "y": 341.221474770753,
      "vx": 8.09016994374948,
      "vy": 5.87785252292473,
      "r": 10.0,
      "m_i": 50000.0,
      "m_h": 0.0,
      "tau": 0.0,
      "substantial": true,
      "fixed": false,
      "color": "#697F5D",
      "label": "",
      "on_decay": null,
      "on_collision": null
    },
    {
      "__type__": "Ball",
      "x": 341.221474770753,
      "y": 319.098300562505,
      "vx": 5.87785252292473,
      "vy": 8.09016994374947,
      "r": 10.0,
      "m_i": 50000.0,
      "m_h": 0.0,
      "tau": 0.0,
      "substantial": true,
      "fixed": false,
      "color": "#717F66",
      "label": "",
      "on_decay": null,
      "on_collision": null
    },
    {
      "__type__": "Ball",
      "x": 369.098300562505,
      "y": 304.894348370485,
      "vx": 3.09016994374947,
      "vy": 9.51056516295153,
      "r": 10.0,
      "m_i": 50000.0,
      "m_h": 0.0,
      "tau": 0.0,
      "substantial": true,
      "fixed": false,
      "color": "#1D7F41",
      "label": "",
      "on_decay": null,
      "on_collision": null
    },
    {
      "__type__": "Ball",
      "x": 400.0,
      "y": 300.0,
      "vx": 0.0,
      "vy": 10.0,
      "r": 10.0,
      "m_i": 50000.0,
      "m_h": 0.0,
      "tau": 0.0,
      "substantial": true,
      "fixed": false,
      "color": "#717C7F",
      "label": "",
      "on_decay": null,
      "on_collision": null
    },
    {
      "__type__": "Ball",
      "x": 430.901699437495,
      "y": 304.894348370485,
      "vx": -3.09016994374947,
      "vy": 9.51056516295154,
      "r": 10.0,
      "m_i": 50000.0,
      "m_h": 0.0,
      "tau": 0.0,
      "substantial": true,
      "fixed": false,
      "color": "#024D7F",
      "label": "",
      "on_decay": null,
      "on_collision": null
    },
    {
      "__type__": "Ball",
      "x": 458.778525229247,
      "y": 319.098300562505,
      "vx": -5.87785252292473,
      "vy": 8.09016994374948,
      "r": 10.0,
      "m_i": 50000.0,
      "m_h": 0.0,
      "tau": 0.0,
      "substantial": true,
      "fixed": false,
      "color": "#113B7F",
      "label": "",
      "on_decay": null,
      "on_collision": null
    },
    {
      "__type__": "Ball",
      "x": 480.901699437495,
      "y": 341.221474770753,
      "vx": -8.09016994374947,
      "vy": 5.87785252292474,
      "r": 10.0,
      "m_i": 50000.0,
      "m_h": 0.0,
      "tau": 0.0,
      "substantial": true,
      "fixed": false,
      "color": "#313F7F",
      "label": "",
      "on_decay": null,
      "on_collision": null
    },
    {
      "__type__": "Ball",
      "x": 495.105651629515,
      "y": 369.098300562505,
      "vx": -9.51056516295153,
      "vy": 3.09016994374947,
      "r": 10.0,
      "m_i": 50000.0,
      "m_h": 0.0,
      "tau": 0.0,
      "substantial": true,
      "fixed": false,
      "color": "#1B1E7F",
      "label": "",
      "on_decay": null,
      "on_collision": null
    }
  ],
  "boundary_polygon": [
    {
      "x": 0.0,
      "y": 0.0
    },
    {
      "x": 800,
      "y": 0.0
    },
    {
      "x": 800,
      "y": 800
    },
    {
      "x": 0.0,
      "y": 800
    }
  ]
}
