{
  "mu": 0.0,
  "G": 0.0,
  "g_exp": -2,
  "g_x": 0.0,
  "g_y": 0.0,  
  "movables": [
    {
      "__type__": "Ball",
      "x": 303.0,
      "y": 350.0,
      "vx": 0.0,
      "vy": 0.0,
      "r": 10.0,
      "m_i": 50000.0,
      "m_h": 0.0,
      "tau": 0.0,
      "substantial": true,
      "fixed": false,
      "color": "#657F49",
      "label": "",
      "on_decay": null,
      "on_collision": null
    },
    {
      "__type__": "Ball",
      "x": 143.0,
      "y": 350.0,
      "vx": 0.0,
      "vy": 0.0,
      "r": 10.0,
      "m_i": 50000.0,
      "m_h": 0.0,
      "tau": 0.0,
      "substantial": true,
      "fixed": false,
      "color": "#595A7F",
      "label": "",
      "on_decay": null,
      "on_collision": null
    },
    {
      "__type__": "Ball",
      "x": 63.0,
      "y": 350.0,
      "vx": 0.0,
      "vy": 0.0,
      "r": 10.0,
      "m_i": 50000.0,
      "m_h": 0.0,
      "tau": 0.0,
      "substantial": true,
      "fixed": false,
      "color": "#4B7F45",
      "label": "",
      "on_decay": null,
      "on_collision": null
    },
    {
      "__type__": "Ball",
      "x": 778.0,
      "y": 350.0,
      "vx": 0.0,
      "vy": 0.0,
      "r": 10.0,
      "m_i": 50000.0,
      "m_h": 0.0,
      "tau": 0.0,
      "substantial": true,
      "fixed": false,
      "color": "#087F26",
      "label": "",
      "on_decay": null,
      "on_collision": null
    },
    {
      "__type__": "Ball",
      "x": 423.0,
      "y": 350.0,
      "vx": 0.0,
      "vy": 0.0,
      "r": 10.0,
      "m_i": 50000.0,
      "m_h": 0.0,
      "tau": 0.0,
      "substantial": true,
      "fixed": false,
      "color": "#4B4C7F",
      "label": "",
      "on_decay": null,
      "on_collision": null
    },
    {
      "__type__": "Ball",
      "x": 103.0,
      "y": 350.0,
      "vx": 0.0,
      "vy": 0.0,
      "r": 10.0,
      "m_i": 50000.0,
      "m_h": 0.0,
      "tau": 0.0,
      "substantial": true,
      "fixed": false,
      "color": "#7F7D7E",
      "label": "",
      "on_decay": null,
      "on_collision": null
    },
    {
      "__type__": "Ball",
      "x": 623.0,
      "y": 350.0,
      "vx": 0.0,
      "vy": 0.0,
      "r": 10.0,
      "m_i": 50000.0,
      "m_h": 0.0,
      "tau": 0.0,
      "substantial": true,
      "fixed": false,
      "color": "#7F5367",
      "label": "",
      "on_decay": null,
      "on_collision": null
    },
    {
      "__type__": "Ball",
      "x": 183.0,
      "y": 350.0,
      "vx": 0.0,
      "vy": 0.0,
      "r": 10.0,
      "m_i": 50000.0,
      "m_h": 0.0,
      "tau": 0.0,
      "substantial": true,
      "fixed": false,
      "color": "#2D4A7F",
      "label": "",
      "on_decay": null,
      "on_collision": null
    },
    {
      "__type__": "Ball",
      "x": 463.0,
      "y": 350.0,
      "vx": 0.0,
      "vy": 0.0,
      "r": 10.0,
      "m_i": 50000.0,
      "m_h": 0.0,
      "tau": 0.0,
      "substantial": true,
      "fixed": false,
      "color": "#7F2042",
      "label": "",
      "on_decay": null,
      "on_collision": null
    },
    {
      "__type__": "Ball",
      "x": 583.0,
      "y": 350.0,
      "vx": 0.0,
      "vy": 0.0,
      "r": 10.0,
      "m_i": 50000.0,
      "m_h": 0.0,
      "tau": 0.0,
      "substantial": true,
      "fixed": false,
      "color": "#7F2A99",
      "label": "",
      "on_decay": null,
      "on_collision": null
    },
    {
      "__type__": "Ball",
      "x": 703.0,
      "y": 350.0,
      "vx": 0.0,
      "vy": 0.0,
      "r": 10.0,
      "m_i": 50000.0,
      "m_h": 0.0,
      "tau": 0.0,
      "substantial": true,
      "fixed": false,
      "color": "#0A7F55",
      "label": "",
      "on_decay": null,
      "on_collision": null
    },
    {
      "__type__": "Ball",
      "x": 663.0,
      "y": 350.0,
      "vx": 0.0,
      "vy": 0.0,
      "r": 10.0,
      "m_i": 50000.0,
      "m_h": 0.0,
      "tau": 0.0,
      "substantial": true,
      "fixed": false,
      "color": "#7F7E77",
      "label": "",
      "on_decay": null,
      "on_collision": null
    },
    {
      "__type__": "Ball",
      "x": 543.0,
      "y": 350.0,
      "vx": 0.0,
      "vy": 0.0,
      "r": 10.0,
      "m_i": 50000.0,
      "m_h": 0.0,
      "tau": 0.0,
      "substantial": true,
      "fixed": false,
      "color": "#497F42",
      "label": "",
      "on_decay": null,
      "on_collision": null
    },
    {
      "__type__": "Ball",
      "x": 503.0,
      "y": 350.0,
      "vx": 0.0,
      "vy": 0.0,
      "r": 10.0,
      "m_i": 50000.0,
      "m_h": 0.0,
      "tau": 0.0,
      "substantial": true,
      "fixed": false,
      "color": "#367F0F",
      "label": "",
      "on_decay": null,
      "on_collision": null
    },
    {
      "__type__": "Ball",
      "x": 383.0,
      "y": 350.0,
      "vx": 10.0,
      "vy": 0.0,
      "r": 10.0,
      "m_i": 50000.0,
      "m_h": 0.0,
      "tau": 0.0,
      "substantial": true,
      "fixed": false,
      "color": "#7F1B28",
      "label": "",
      "on_decay": null,
      "on_collision": null
    },
    {
      "__type__": "Ball",
      "x": 343.0,
      "y": 350.0,
      "vx": 0.0,
      "vy": 0.0,
      "r": 10.0,
      "m_i": 50000.0,
      "m_h": 0.0,
      "tau": 0.0,
      "substantial": true,
      "fixed": false,
      "color": "#727F70",
      "label": "",
      "on_decay": null,
      "on_collision": null
    },
    {
      "__type__": "Ball",
      "x": 23.0,
      "y": 350.0,
      "vx": 10.0,
      "vy": 0.0,
      "r": 10.0,
      "m_i": 50000.0,
      "m_h": 0.0,
      "tau": 0.0,
      "substantial": true,
      "fixed": false,
      "color": "#697F28",
      "label": "",
      "on_decay": null,
      "on_collision": null
    },
    {
      "__type__": "Ball",
      "x": 223.0,
      "y": 350.0,
      "vx": 0.0,
      "vy": 0.0,
      "r": 10.0,
      "m_i": 50000.0,
      "m_h": 0.0,
      "tau": 0.0,
      "substantial": true,
      "fixed": false,
      "color": "#7A7F77",
      "label": "",
      "on_decay": null,
      "on_collision": null
    },
    {
      "__type__": "Ball",
      "x": 263.0,
      "y": 350.0,
      "vx": 0.0,
      "vy": 0.0,
      "r": 10.0,
      "m_i": 50000.0,
      "m_h": 0.0,
      "tau": 0.0,
      "substantial": true,
      "fixed": false,
      "color": "#222D7F",
      "label": "",
      "on_decay": null,
      "on_collision": null
    },
    {
      "__type__": "Ball",
      "x": 743.0,
      "y": 350.0,
      "vx": 0.0,
      "vy": 0.0,
      "r": 10.0,
      "m_i": 50000.0,
      "m_h": 0.0,
      "tau": 0.0,
      "substantial": true,
      "fixed": false,
      "color": "#7F3C51",
      "label": "",
      "on_decay": null,
      "on_collision": null
    }
  ],
  "boundary_polygon": [
    {
      "x": 0.0,
      "y": 0.0
    },
    {
      "x": 800,
      "y": 0.0
    },
    {
      "x": 800,
      "y": 700
    },
    {
      "x": 0.0,
      "y": 700
    }
  ]
}
