{
  "mu": 0.0,
  "G": 0.0,
  "g_exp": -2,
  "g_x": 0.0,
  "g_y": 0.0,  
  "movables": [
    {
      "__type__": "Ball",
      "x": 500.0,
      "y": 350.0,
      "vx": 4.0,
      "vy": 0.0,
      "r": 10.0,
      "m_i": 10.0,
      "m_h": 0.0,
      "tau": 0.0,
      "substantial": true,
      "fixed": false,
      "color": "#000000",
      "label": "",
      "on_decay": null,
      "on_collision": null
    },
    {
      "__type__": "Ball",
      "x": 400.0,
      "y": 350.0,
      "vx": 0.0,
      "vy": 0.0,
      "r": 50.0,
      "m_i": 1000.0,
      "m_h": 0.0,
      "tau": 0.0,
      "substantial": true,
      "fixed": false,
      "color": "#00FF00",
      "label": "",
      "on_decay": null,
      "on_collision": null
    },
    {
      "__type__": "Ball",
      "x": 300.0,
      "y": 350.0,
      "vx": -0.02,
      "vy": 0.0,
      "r": 10.0,
      "m_i": 10.0,
      "m_h": 0.0,
      "tau": 0.0,
      "substantial": true,
      "fixed": false,
      "color": "#000000",
      "label": "",
      "on_decay": null,
      "on_collision": null
    }
  ],
  "boundary_polygon": [
    {"x": 0.0, "y": 0.0},
    {"x": 600.0, "y": 0.0},
    {"x": 600.0, "y": 600.0},
    {"x": 0.0, "y": 600.0}
  ]
}
